A data-driven normal for the Spain temperature chart – Dr Dominic Royé
…
The original 42-station list is a legacy of AEMET’s homogenized climate series (by the way it isn’t anymore used, see below). Instead, now I built a list of 60 locations:

The capital city of each of the 48 mainland and Balearic provinces, plus Ceuta and Melilla (50 in total). This is an objective, reproducible criterion: it is fixed by Spain’s administrative geography, not by a climatologist’s choice, and it guarantees at least one point in every region.

10 additional cities chosen for climatic rather than administrative reasons: places that are large (Vigo, Gijón, Cartagena, Jerez de la Frontera, Elche…) but are not provincial capitals, plus a couple of smaller places that sit in climatically distinctive spots, Ferrol and Santiago de Compostela for the Atlantic Galician interior/coast contrast, and Tarifa, which despite its modest population (~18,000) sits at the Strait of Gibraltar and experiences one of the most distinctive wind/temperature regimes in mainland Spain.

I deliberately leave out the Canary Islands’ two provincial capitals (Las Palmas de Gran Canaria, Santa Cruz de Tenerife). Geographically they’re Spain, but climatically they’re a different system: sub-tropical, oceanic, at a latitude shared with the Sahara rather than the Iberian Peninsula, with a seasonal cycle so muted it barely qualifies as one. Folding them into a single national median would mix two climates that don’t share the thing this whole post is about, a clear, single-peaked annual cycle, for the sake of a higher city count. The Balearics (Palma de Mallorca) stay in: same broad Mediterranean system as the mainland coast, just offshore.

The full list is available as a CSV (cities.csv):

cities <- read_csv("cities.csv")
cities

# A tibble: 60 x 7
   name              province  type      lat    lon population note 
   <chr>             <chr>     <chr>   <dbl>  <dbl>      <dbl> <chr>
 1 A Coruna          A Coruna  capital  43.4 -8.41      245000 <NA> 
 2 Vitoria-Gasteiz   Alava     capital  42.8 -2.67      253000 <NA> 
 3 Albacete          Albacete  capital  39.0 -1.86      173000 <NA> 
 4 Alicante          Alicante  capital  38.3 -0.481     337000 <NA> 
 5 Almeria           Almeria   capital  36.8 -2.46      200000 <NA> 
 6 Oviedo            Asturias  capital  43.4 -5.84      219000 <NA> 
 7 Avila             Avila     capital  40.7 -4.68       57000 <NA> 
 8 Badajoz           Badajoz   capital  38.9 -6.97      150000 <NA> 
 9 Palma de Mallorca Baleares  capital  39.6  2.65      419000 <NA> 
10 Barcelona         Barcelona capital  41.4  2.17     1620000 <NA> 
# i 50 more rows
…
national_2025 <- current_raw |>
  group_by(date) |>
  summarise(tmed = median(tmed, na.rm = TRUE)) |>
  mutate(yd = yday(date))

From here on, we work with the cached files:

national_1961_1990 <- read_csv("national_daily_1961_1990.csv")
national_2025 <- read_csv("national_daily_2025.csv")

national_1961_1990

# A tibble: 10,957 x 4
   date        tmed    yd    yr
   <date>     <dbl> <dbl> <dbl>
 1 1961-01-01  6.9      1  1961
 2 1961-01-02  8        2  1961
 3 1961-01-03  9.2      3  1961
 4 1961-01-04  6.9      4  1961
 5 1961-01-05  6        5  1961
 6 1961-01-06  5.6      6  1961
 7 1961-01-07  8.55     7  1961
 8 1961-01-08 10.6      8  1961
 9 1961-01-09  8.95     9  1961
10 1961-01-10  7.7     10  1961
# i 10,947 more rows
Step 3: the daily climatology (1961-1990)

For each day of the year (1 to 366, to account for leap years), we take the median across the 30 years as the central reference, and the 5th/95th percentiles as the “typical range”:

clim <- national_1961_1990 |>
  group_by(yd) |>
  summarise(
    tmed_norm = median(tmed, na.rm = TRUE),
    p5  = quantile(tmed, .05, na.rm = TRUE),
    p95 = quantile(tmed, .95, na.rm = TRUE)
  )

clim

# A tibble: 366 x 4
      yd tmed_norm    p5   p95
   <dbl>     <dbl> <dbl> <dbl>
 1     1      6.9   2.93 10.3 
 2     2      7.4   3.92  9.65
 3     3      7.02  4.04  9.97
 4     4      6.95  3.64 10.7 
 5     5      6.88  3.85 10.1 
 6     6      6.8   3.48 10.9 
 7     7      7.28  3.76 11.7 
 8     8      7.38  4.39 11.5 
 9     9      7.02  3.76 11.4 
10    10      6.75  3.37 10.9 
# i 356 more rows
…
